{
  "npmScope": "angular-demo",
  "implicitDependencies": {
    "angular.json": "*",
    "package.json": "*",
    "tsconfig.json": "*",
    "tslint.json": "*",
    "nx.json": "*"
  },
  "projects": {
    "product-management": {
      "tags": []
    },
    "product-management-e2e": {
      "tags": []
    },
    "mylib": {
      "tags": []
    },
    "product": {
      "tags": []
    }
  }
}
